R: From Zero to Decisions — Daniel Molina
…
delays <- flights |>
  filter(!is.na(arr_delay)) |>              # drop flights with no value
  group_by(carrier) |>
  summarise(
    mean_delay = mean(arr_delay),
    n_flights  = n()
  ) |>
  left_join(airlines, by = "carrier") |>    # code -> readable name
  arrange(desc(mean_delay))

delays

# A tibble: 16 x 4
   carrier mean_delay n_flights name
   <chr>           <dbl>    <int> <chr>
 1 F9              21.9      681 Frontier Airlines Inc.
 2 FL              20.1     3175 AirTran Airways Corpor~
 3 EV              15.8    51108 ExpressJet Airlines Inc.
 4 YV              15.6      544 Mesa Airlines Inc.
 5 OO              11.9       26 SkyWest Airlines Inc.
 6 MQ              10.8    25710 Envoy Air
 # ... 10 more rows
…
library(purrr)
library(readr)

files <- list.files("data/sales", pattern = "\\.csv$", full.names = TRUE)

sales <- files |>
  set_names(basename) |>                       # name each element by its file
  map(\(path) read_csv(path, show_col_types = FALSE)) |>
  list_rbind(names_to = "source_file")         # stack and add a provenance column

# In a folder with 2024-01.csv ... 2024-12.csv:
dim(sales)                                     # e.g. 48000 rows, columns + 1
dplyr::count(sales, source_file)               # how many rows each month contributed

      # A tibble: 12 × 2
   source_file        n
   <chr>          <int>
 1 2024-01.csv     4102
 2 2024-02.csv     3980
 3 2024-03.csv     4210
 # ... 9 more rows
…
      From vector to tsibble

      The classic ts object works, but a tsibble is a data frame that knows which is its time-index column. Let's convert AirPassengers (monthly air passengers, 1949-1960), the canonical example with marked trend and seasonality.

      R · fableCopy

library(fpp3)   # loads tsibble + feasts + fable + tidyverse

# Convert the classic ts to a tsibble with a monthly index (yearmonth)
series <- as_tsibble(AirPassengers) |>
  rename(passengers = value)

series

# A tsibble: 144 x 2 [1M]
      index passengers
      <mth>      <dbl>
 1 1949 Jan        112
 2 1949 Feb        118
 3 1949 Mar        132
 4 1949 Apr        129
 5 1949 May        121
 # ... with 139 more rows
…
